R Plot
…
## Warning: package 'dplyr' was built under R version 3.4.2

## 
## Attaching package: 'dplyr'

## The following objects are masked from 'package:stats':
## 
##     filter, lag

## The following objects are masked from 'package:base':
## 
##     intersect, setdiff, setequal, union

## # A tibble: 220 x 4
## # Groups:   region, Year [?]
##     region  Year                    Cause.of.Death Observed.Deaths
##     <fctr> <int>                            <fctr>           <dbl>
##  1 Midwest  2005                            Cancer       2908.1042
##  2 Midwest  2005 Chronic Lower Respiratory Disease        503.8199
##  3 Midwest  2005                     Heart Disease       2185.6042
##  4 Midwest  2005                            Stroke        413.0691
##  5 Midwest  2005              Unintentional Injury        943.3194
##  6 Midwest  2006                            Cancer       2925.4236
##  7 Midwest  2006 Chronic Lower Respiratory Disease        493.5038
##  8 Midwest  2006                     Heart Disease       2121.4931
##  9 Midwest  2006                            Stroke        394.5018
## 10 Midwest  2006              Unintentional Injury        986.9375
## # ... with 210 more rows
…
2. Max and Min value of all types of deaths in Each age group

## 'data.frame':    191748 obs. of  5 variables:
##  $ Cause.of.Death           : Factor w/ 5 levels "Cancer","Chronic Lower Respiratory Disease",..: 3 4 1 3 1 2 5 1 3 4 ...
##  $ Age.Range                : Factor w/ 8 levels "0-49","0-54",..: 1 3 4 3 3 4 3 1 1 1 ...
##  $ Observed.Deaths          : int  19 24 390 158 88 24 259 46 19 12 ...
##  $ Expected.Deaths          : int  15 11 353 121 63 18 104 48 16 5 ...
##  $ Potentially.Excess.Deaths: int  4 13 43 37 27 8 155 1 3 7 ...

## # A tibble: 40 x 5
## # Groups:   Age.Range [?]
##    Age.Range                    Cause.of.Death Observed.Deaths
##       <fctr>                            <fctr>           <dbl>
##  1      0-49                            Cancer       485.26151
##  2      0-49 Chronic Lower Respiratory Disease        52.27354
##  3      0-49                     Heart Disease       404.80074
##  4      0-49                            Stroke        86.90902
##  5      0-49              Unintentional Injury       799.16290
##  6      0-54                            Cancer       903.57413
##  7      0-54 Chronic Lower Respiratory Disease        90.56129
##  8      0-54                     Heart Disease       707.54162
##  9      0-54                            Stroke       132.63768
## 10      0-54              Unintentional Injury       934.75290
## # ... with 30 more rows, and 2 more variables: Expected.Deaths <dbl>,
## #   Potentially.Excess.Deaths <dbl>

## Warning: package 'tidyr' was built under R version 3.4.2

## # A tibble: 120 x 4
## # Groups:   Age.Range [8]
##    Age.Range                    Cause.of.Death      Death_Type    Deaths
##       <fctr>                            <fctr>           <chr>     <dbl>
##  1      0-49                            Cancer Observed.Deaths 485.26151
##  2      0-49 Chronic Lower Respiratory Disease Observed.Deaths  52.27354
##  3      0-49                     Heart Disease Observed.Deaths 404.80074
##  4      0-49                            Stroke Observed.Deaths  86.90902
##  5      0-49              Unintentional Injury Observed.Deaths 799.16290
##  6      0-54                            Cancer Observed.Deaths 903.57413
##  7      0-54 Chronic Lower Respiratory Disease Observed.Deaths  90.56129
##  8      0-54                     Heart Disease Observed.Deaths 707.54162
##  9      0-54                            Stroke Observed.Deaths 132.63768
## 10      0-54              Unintentional Injury Observed.Deaths 934.75290
## # ... with 110 more rows
…
